C:\Users\erlro\OneDrive\Dokumenter\NTNU\Programmering 2\mappe-1\src\main\java\ntnu\idi\bidata\k2g9\RemoveException.java
C:\Users\erlro\OneDrive\Dokumenter\NTNU\Programmering 2\mappe-1\src\main\java\ntnu\idi\bidata\k2g9\personnel\GeneralPractitioner.java
C:\Users\erlro\OneDrive\Dokumenter\NTNU\Programmering 2\mappe-1\src\main\java\ntnu\idi\bidata\k2g9\personnel\Surgeon.java
C:\Users\erlro\OneDrive\Dokumenter\NTNU\Programmering 2\mappe-1\src\main\java\ntnu\idi\bidata\k2g9\personnel\Diagnosable.java
C:\Users\erlro\OneDrive\Dokumenter\NTNU\Programmering 2\mappe-1\src\main\java\ntnu\idi\bidata\k2g9\hospitalUnits\Hospital.java
C:\Users\erlro\OneDrive\Dokumenter\NTNU\Programmering 2\mappe-1\src\main\java\ntnu\idi\bidata\k2g9\HospitalTestData.java
C:\Users\erlro\OneDrive\Dokumenter\NTNU\Programmering 2\mappe-1\src\main\java\ntnu\idi\bidata\k2g9\hospitalUnits\Department.java
C:\Users\erlro\OneDrive\Dokumenter\NTNU\Programmering 2\mappe-1\src\main\java\ntnu\idi\bidata\k2g9\personnel\Person.java
C:\Users\erlro\OneDrive\Dokumenter\NTNU\Programmering 2\mappe-1\src\main\java\ntnu\idi\bidata\k2g9\personnel\Patient.java
C:\Users\erlro\OneDrive\Dokumenter\NTNU\Programmering 2\mappe-1\src\main\java\ntnu\idi\bidata\k2g9\personnel\Nurse.java
C:\Users\erlro\OneDrive\Dokumenter\NTNU\Programmering 2\mappe-1\src\main\java\ntnu\idi\bidata\k2g9\personnel\Doctor.java
C:\Users\erlro\OneDrive\Dokumenter\NTNU\Programmering 2\mappe-1\src\main\java\ntnu\idi\bidata\k2g9\personnel\Employee.java
C:\Users\erlro\OneDrive\Dokumenter\NTNU\Programmering 2\mappe-1\src\main\java\ntnu\idi\bidata\k2g9\HospitalClient.java
